{
    "HI": [
        0,
        1
    ],
    "AK": [
        0,
        7
    ],
    "WA": [
        1,
        5
    ],
    "OR": [
        1,
        4
    ],
    "CA": [
        1,
        3
    ],
    "ID": [
        2,
        5
    ],
    "UT": [
        2,
        4
    ],
    "NV": [
        2,
        3
    ],
    "AZ": [
        2,
        2
    ],
    "MT": [
        3,
        5
    ],
    "WY": [
        3,
        4
    ],
    "CO": [
        3,
        3
    ],
    "NM": [
        3,
        2
    ],
    "ND": [
        4,
        5
    ],
    "SD": [
        4,
        4
    ],
    "NE": [
        4,
        3
    ],
    "KS": [
        4,
        2
    ],
    "OK": [
        4,
        1
    ],
    "MN": [
        5,
        5
    ],
    "IA": [
        5,
        4
    ],
    "MO": [
        5,
        3
    ],
    "AR": [
        5,
        2
    ],
    "LA": [
        5,
        1
    ],
    "TX": [
        5,
        0
    ],
    "WI": [
        6,
        5
    ],
    "IL": [
        6,
        4
    ],
    "IN": [
        6,
        3
    ],
    "KY": [
        6,
        2
    ],
    "MS": [
        6,
        1
    ],
    "MI": [
        7,
        5
    ],
    "OH": [
        7,
        4
    ],
    "WV": [
        7,
        3
    ],
    "TN": [
        7,
        2
    ],
    "AL": [
        7,
        1
    ],
    "PA": [
        8,
        4
    ],
    "VA": [
        8,
        3
    ],
    "SC": [
        8,
        2
    ],
    "GA": [
        8,
        1
    ],
    "NY": [
        9,
        5
    ],
    "NJ": [
        9,
        4
    ],
    "MD": [
        9,
        3
    ],
    "NC": [
        9,
        2
    ],
    "FL": [
        9,
        0
    ],
    "VT": [
        10,
        6
    ],
    "MA": [
        10,
        5
    ],
    "CT": [
        10,
        4
    ],
    "DE": [
        10,
        3
    ],
    "ME": [
        11,
        7
    ],
    "NH": [
        11,
        6
    ],
    "RI": [
        11,
        5
    ]
}